module github.com/HugoBlox/hugo-blox-builder/starters/academic-cv

go 1.19

require (
	github.com/HugoBlox/hugo-blox-builder/modules/blox-bootstrap/v5 v5.9.7
	github.com/HugoBlox/hugo-blox-builder/modules/blox-plugin-netlify v1.1.2-0.20250203135313-cea5cbc3d926
	github.com/HugoBlox/hugo-blox-builder/modules/blox-plugin-reveal v1.1.2
	github.com/HugoBlox/hugo-blox-builder/modules/blox-tailwind v0.3.1
)

require (
	github.com/HugoBlox/hugo-blox-builder/modules/blox-analytics v0.1.3 // indirect
	github.com/HugoBlox/hugo-blox-builder/modules/blox-core v0.3.1 // indirect
	github.com/HugoBlox/hugo-blox-builder/modules/blox-seo v0.2.3 // indirect
)
